Arguments: 
  /home/ice/.volta/tools/image/node/16.2.0/bin/node /home/ice/.volta/tools/image/yarn/1.22.10/bin/yarn.js

PATH: 
  /home/ice/.volta/tools/image/yarn/1.22.10/bin:/home/ice/.volta/tools/image/node/16.2.0/bin:/home/ice/.volta/bin:/usr/lib/freecad-daily/lib:/home/ice/.cargo/bin:/usr/local/bin:/usr/bin:/bin:/usr/local/games:/usr/games:/home/ice/.local/bin:/home/ice/n/bin:/home/ice/bin/build/.go/bin:/home/ice/bin/build/go/bin:/home/ice/n/bin:/home/ice/.yarn/bin:/snap/bin:/home/ice/.pyenv/bin:/opt:/home/ice/v:/home/ice/.emacs.d/bin:/home/ice/bin:/home/ice/build/.go/bin:/home/ice/.volta/bin:/home/ice/.pyenv/versions/3.9.1/bin:/usr/sbin:/home/ice/.fzf/bin

Yarn version: 
  1.22.10

Node version: 
  16.2.0

Platform: 
  linux x64

Trace: 
  Error: ENOENT: no such file or directory, copyfile '/home/ice/.cache/yarn/v6/npm-open-7.4.2-b8147e26dcf3e426316c730089fd71edd29c2321-integrity/node_modules/open/index.d.ts' -> '/home/ice/m/snow/node_modules/snowpack/node_modules/open/index.d.ts'

npm manifest: 
  {
    "scripts": {
      "start": "snowpack dev",
      "build": "snowpack build",
      "test": "web-test-runner \"src/**/*.test.tsx\"",
      "format": "prettier --write \"src/**/*.{js,jsx,ts,tsx}\"",
      "lint": "prettier --check \"src/**/*.{js,jsx,ts,tsx}\""
    },
    "dependencies": {
      "react": "^17.0.2",
      "react-dom": "^17.0.2"
    },
    "devDependencies": {
      "@snowpack/plugin-build-script": "^2.1.0",
      "@snowpack/plugin-dotenv": "^2.1.0",
      "@snowpack/plugin-react-refresh": "^2.5.0",
      "@snowpack/plugin-typescript": "^1.2.1",
      "@snowpack/web-test-runner-plugin": "^0.2.2",
      "@testing-library/react": "^11.2.7",
      "@types/chai": "^4.2.18",
      "@types/mocha": "^8.2.2",
      "@types/react": "^17.0.6",
      "@types/react-dom": "^17.0.5",
      "@types/snowpack-env": "^2.3.3",
      "@web/test-runner": "^0.13.4",
      "chai": "^4.3.4",
      "postcss": "^8.3.0",
      "postcss-cli": "^8.3.1",
      "prettier": "^2.3.0",
      "snowpack": "^3.5.1",
      "tailwindcss": "^2.1.2",
      "typescript": "^4.2.4"
    }
  }

yarn manifest: 
  No manifest

Lockfile: 
  No lockfile
